{
  "type": "service_account",
  "project_id": "sbari44648",
  "private_key_id": "efabac1fcd0cc0ae20dd1a9e4afa50449094dbf8",
  "private_key": "-----BEGIN PRIVATE KEY-----\nMIIEvQIBADANBgkqhkiG9w0BAQEFAASCBKcwggSjAgEAAoIBAQDwMP5x5+tBfwVW\nGznoz82kcn/Dx0upiqOst+nC4vt3IJlDZQwXpv+9Z5vzCFgNrpPR+FGFnSW7GvTB\nPxfvnek7Vsj6y5HatAupogSZXumpmCwSoSFudMtdCJXrBLbKqCRJ2I47UIUS3plz\n/x0ZbDVtSl7ScVKJ7HryevB0S74RzRgxfYP0kyG6hjpNV9xquNqa3/63XDTfInUm\nRCZC/UaUEwycXZTZQNyKXXJikUtwijl+ErJai9BeYCrhpzLNvcHoUAwNJFjgeRB+\nZBVeXjSkJ0u6U7CZ9sOt2qTXd24L51MINCEGv7cAc67qf1jxxwZUZtKIZbUa9In1\nNp6ajiH5AgMBAAECggEASxBsvKlntvDc+JOKrg0fbfjQoB1NMp+e1lAl0J/CSfEY\npNzUAiJRQ165eKMPbbs0/EZYJ+M8UvSyMCCpONwHc2GEbwimvQxOpsV5HXtxl+x0\nPaA4w/3hPmJ8A9ZV0BDrQl7Y2IWqCQMjPwKoE/Vi3xSCfM8ope0PYW91bUrsjEAL\nADl8kjhRhS/+svqG68G77pVRo79Jx2acc/LIhAnRGzGKOJwgvy2cSJZ77n0QKDa5\nOjWDUpynyaeJPheCSpm3zzP2TrMZR9DKkLaMzNmvz2WXtPT9Rw9xWyzuGefPioXH\n/jMwtOIBQPZ0Uc9z1UyAMDDA2kTC19NRZnu+A2cpbwKBgQD72MOFU0PYTb8GbRxX\nX2ZPQswE5AHXEK7dJQD9MQdTMywy6viZRwQLV/ERbQsXhiT93ZA6sMlb77JGGgUD\nPfY8A831a1XwurIuvukcy0UwqlQrFn+Hj8QmIHfzbzhRNjpTt1OLHymVmRvmaD8M\njv+eLYoqPl+hLM2nfaTLTO7aJwKBgQD0JwYqp9K3yrCX3Neo1osJrksoE9/JnwZv\nUdWxoyvDgcQqncw7safigxBpBXXrwUMvp1mR7arZ/vvAcxr3RUjjwWatg0J61bNa\nfs1qL6+4ovhEaWY6WbbRvaDfWxxw2wiqWO4/jCv3wdPSFGyv5OiyxNnhzazYcjCx\nj4W4V0NW3wKBgGG1HVYSkdXPg/coScCUIItLrP+Qvi4EKPNfMd0JMoBS8CjpBH3j\nEWydN8e8+Hqt7pgXZ6d9gwGKIy4TVjKFzYxHJZa7h+IXbJ26L5KeQj+5NWJqHhwn\n6L+qBR+K3NyVH1fvXhgxhN6nQi3H7/4dVIq3vEzbWhqb2UXL9y1wsZItAoGBAN96\n6PYab5K0ATjAeNaeqt3NoBWrO2h+G5HBwmy7AtAN89VeYxcw4o8/kMHQscN+P1Vb\nRW2BsqWf9CiQM9qqnLF80dN5Fl0BRw5KixPrWlkTM1TLdTtr6x/JB3vrFflnRGNI\ny6t3TreVv6HH+ER4r1cTQKyjatckjtW4nZnCpmzZAoGAPQKmjLob5tNuJqVZTtCF\n9IrjCEIcn44wK7kOnqC42jvduBEpZOSRuOf1rXmFP0fv/muV89ytnKrvuvNNSwhQ\ngXdqEVnmBV02OG216QlBpl6ejKPM5wTIz4M2EIktQ/5WbQ2BkQYXVLZZ/TkXf1WB\nwOGBhNArZknh51SWk8G1ivE=\n-----END PRIVATE KEY-----\n",
  "client_email": "firebase-adminsdk-uybbf@sbari44648.iam.gserviceaccount.com",
  "client_id": "113344872514286299605",
  "auth_uri": "https://accounts.google.com/o/oauth2/auth",
  "token_uri": "https://oauth2.googleapis.com/token",
  "auth_provider_x509_cert_url": "https://www.googleapis.com/oauth2/v1/certs",
  "client_x509_cert_url": "https://www.googleapis.com/robot/v1/metadata/x509/firebase-adminsdk-uybbf%40sbari44648.iam.gserviceaccount.com"
}
